#include <stdio.h>
#include <conio.h>
#define size 8

    int main(){

/*

z=0
size=8
a=3
b=2
x[3]=5
x[2]=2
temp=2

1 3 2 5 4 6 8 7

z=0
size=8
a=2
b=1
x[2]=3
x[1]=2
temp=2

1 2 3 5 4 6 8 7

*/


        int x[]={1,3,5,2,4,6,8,7};
        int a,b,z,temp;

        for(z=0;z<size/2;z++){
            for(a=size/2-1,b=a-1;a>0;a--,b--){
                printf("x[%d]=%d\nx[%d]=%d\n\n", a,x[a],b,x[b]);
                getch();
                if(x[a]<x[b]){
                    temp=x[a];
                    x[a]=x[b];
                    x[b]=temp;

        printf("z=%d\nsize=%d\na=%d\nb=%d\nx[%d]=%d\nx[%d]=%d\ntemp=%d\n\n",z,size,a,b,a,x[a],b,x[b],temp);
        printf("%d %d %d %d %d %d %d %d \n\n",x[0],x[1],x[2],x[3],x[4],x[5],x[6],x[7]);
        getch();
                }
            }
        }

    }


